…
print(pulse_data, n = 12)
```

    ## # A tibble: 4,348 x 5
    ##       id visit   age sex     bdi
    ##    <dbl> <fct> <dbl> <chr> <dbl>
    ##  1 10003 00m    48.0 male      7
    ##  2 10003 01m    48.0 male      1
    ##  3 10003 06m    48.0 male      2
    ##  4 10003 12m    48.0 male      0
    ##  5 10015 00m    72.5 male      6
    ##  6 10015 01m    72.5 male     NA
    ##  7 10015 06m    72.5 male     NA
    ##  8 10015 12m    72.5 male     NA
    ##  9 10022 00m    58.5 male     14
    ## 10 10022 01m    58.5 male      3
    ## 11 10022 06m    58.5 male      8
    ## 12 10022 12m    58.5 male     NA
    ## # ... with 4,336 more rows
…
  select(-contains("P Value")) %>% 
  pivot_longer(
    -State,
    names_to = "age_year",
    values_to = "percent"
  ) %>% 
  separate(age_year, into = c("age", "year"), sep = "\\(") %>% 
  mutate(
    year = str_replace(year, "\\)", ""),
    percent = str_replace(percent, "[a-c]$", ""),
    percent = as.numeric(percent)
  )
```

    ## # A tibble: 560 x 4
    ##    State      age   year      percent
    ##    <chr>      <chr> <chr>       <dbl>
    ##  1 Total U.S. 12+   2013-2014   12.9 
    ##  2 Total U.S. 12+   2014-2015   13.4 
    ##  3 Total U.S. 12-17 2013-2014   13.3 
    ##  4 Total U.S. 12-17 2014-2015   12.9 
    ##  5 Total U.S. 18-25 2013-2014   31.8 
    ##  6 Total U.S. 18-25 2014-2015   32.1 
    ##  7 Total U.S. 26+   2013-2014    9.63
    ##  8 Total U.S. 26+   2014-2015   10.2 
    ##  9 Total U.S. 18+   2013-2014   12.9 
    ## 10 Total U.S. 18+   2014-2015   13.4 
    ## # ... with 550 more rows
…
